{
  "project_info": {
    "project_number": "421982072588",
    "firebase_url": "https://administradorweb-db62c-default-rtdb.firebaseio.com",
    "project_id": "administradorweb-db62c",
    "storage_bucket": "administradorweb-db62c.appspot.com"
  },
  "client": [
    {
      "client_info": {
        "mobilesdk_app_id": "1:421982072588:android:a0d05b69976ee994dce329",
        "android_client_info": {
          "package_name": "com.example.icebox"
        }
      },
      "oauth_client": [
        {
          "client_id": "421982072588-70bujjfmeddqef5rpmvmkapgrdqnfdto.apps.googleusercontent.com",
          "client_type": 3
        }
      ],
      "api_key": [
        {
          "current_key": "AIzaSyC_3JicauI_YsU7aQ4iv9sTg_Pp5eH3dVM"
        }
      ],
      "services": {
        "appinvite_service": {
          "other_platform_oauth_client": [
            {
              "client_id": "421982072588-70bujjfmeddqef5rpmvmkapgrdqnfdto.apps.googleusercontent.com",
              "client_type": 3
            }
          ]
        }
      }
    }
  ],
  "configuration_version": "1"
}